Bivariate Model Example
…
We will use the built-in dataset KIDNEY to show how the
bivariate model functions work. All the functions for the bivariate
model start with the letters BSB, which stand for
Bayesian Semiparametric Bivariate.

KIDNEY
#> # A tibble: 38 × 6
#>       id   sex    t1    t2 delta1 delta2
#>    <dbl> <dbl> <dbl> <dbl>  <dbl>  <dbl>
#>  1     1     1     8    16      1      1
#>  2     2     0    23    13      1      0
#>  3     3     1    22    28      1      1
#>  4     4     0   447   318      1      1
#>  5     5     1    30    12      1      1
#>  6     6     0    24   245      1      1
#>  7     7     1     7     9      1      1
#>  8     8     0   511    30      1      1
#>  9     9     0    53   196      1      1
#> 10    10     1    15   154      1      1
#> # ℹ 28 more rows
…
